alltest
…
stat_5

# A tibble: 24 × 7
   columns           count        mean    median           sd   min          max
   <chr>             <int>       <dbl>     <dbl>        <dbl> <dbl>        <dbl>
 1 adult_microglia_1  9371 1932471100.  90307000  8995905381.     0      2.71e11
 2 adult_microglia_2  9371 1915978821. 101520000  8704936864.     0      2.83e11
 3 adult_microglia_3  9371 1940332867.  99127000  9016925350.     0      2.90e11
 4 astrocytes_1       9371 1601970907.  50765000 11218916310.     0      7.74e11
 5 astrocytes_2       9371 1738419620.  36434000 14149447218.     0      1.07e12
 6 astrocytes_3       9371 1688172658.  31182000 12714482438.     0      8.60e11
 7 neurons_div05_1    9371 1946037590. 120280000 10089552740.     0      2.98e11
 8 neurons_div05_2    9371 1928545395. 116890000 10023548618.     0      3.12e11
 9 neurons_div05_3    9371 1906560620. 121120000  9331993462.     0      2.95e11
10 neurons_div10_1    9371 1912701815. 120760000  9408520546.     0      2.88e11
# ℹ 14 more rows

per_protein_stat <- clean_5 |> 
  rowwise() |> 
  mutate(
    mean = mean(c_across(where(is.numeric)), na.rm = TRUE),
    sd = sd(c_across(where(is.numeric)), na.rm = TRUE)
  ) |> 
  select(gene_names, protein_names, mean, sd)

per_protein_stat

# A tibble: 9,371 × 4
# Rowwise: 
   gene_names                                      protein_names    mean      sd
   <chr>                                           <chr>           <dbl>   <dbl>
 1 Vim                                             Vimentin      2.29e11 2.77e11
 2 Hsp90ab1                                        Heat shock p… 2.58e11 4.50e10
 3 Ywhae                                           14-3-3 prote… 1.46e11 3.18e10
 4 Hspa8                                           Heat shock c… 1.24e11 1.62e10
 5 Atp5a1                                          ATP synthase… 1.24e11 3.00e10
 6 Myh9                                            Myosin-9      1.22e11 9.70e10
 7 Hist1h2bc;Hist1h2bh                             Histone H2B … 1.10e11 3.79e10
 8 Aco2                                            Aconitate hy… 7.61e10 1.75e10
 9 Gapdh;Gm2606;Gm5559;Gm10481;Gm4609;Gm10358;Gm3… Glyceraldehy… 7.25e10 2.45e10
10 Arhgdia                                         Rho GDP-diss… 4.87e10 2.90e10
# ℹ 9,361 more rows
…
Merging

prot_rna_merged <- inner_join(prot_one_gene, aug_3, by = "gene_name")

Warning in inner_join(prot_one_gene, aug_3, by = "gene_name"): Detected an unexpected many-to-many relationship between `x` and `y`.
ℹ Row 3199 of `x` matches multiple rows in `y`.
ℹ Row 271 of `y` matches multiple rows in `x`.
ℹ If a many-to-many relationship is expected, set `relationship =
  "many-to-many"` to silence this warning.

prot_rna_merged # joined table with duplicates in protein names and it's okay, no correlation in data

# A tibble: 7,658 × 16
   gene_name protein_names            prot_microglia prot_astro prot_neuron_div5
   <chr>     <chr>                             <dbl>      <dbl>            <dbl>
 1 Vim       Vimentin                           37.4       39.7             34.2
 2 Hsp90ab1  Heat shock protein HSP …           37.7       37.4             38.0
 3 Ywhae     14-3-3 protein epsilon             36.2       37.3             37.4
 4 Hspa8     Heat shock cognate 71 k…           36.8       36.8             36.8
 5 Atp5a1    ATP synthase subunit al…           36.4       36.6             37.0
 6 Myh9      Myosin-9                           38.0       37.9             34.3
 7 Hist1h2bc Histone H2B type 1-C/E/…           36.0       36.5             37.3
 8 Aco2      Aconitate hydratase, mi…           35.6       36.2             36.0
 9 Gapdh     Glyceraldehyde-3-phosph…           36.9       36.0             35.7
10 Arhgdia   Rho GDP-dissociation in…           36.0       35.7             34.1
# ℹ 7,648 more rows
# ℹ 11 more variables: prot_neuron_div10 <dbl>, prot_oligo_div1 <dbl>,
#   prot_oligo_div2_5 <dbl>, prot_oligo_div4 <dbl>, rna_oligo_div1 <dbl>,
#   rna_oligo_div2_5 <dbl>, rna_oligo_div4 <dbl>, rna_microglia <dbl>,
#   rna_astro <dbl>, rna_neuron_div5 <dbl>, rna_neuron_div10 <dbl>
…
# but for plotting we need a table not a matrix
corr_df <- corr_mat |> 
  as_tibble(rownames = "proteome") |> #then we produce the long format
  pivot_longer(-proteome,
               names_to = "transcriptome",
               values_to = "corr")
corr_df

# A tibble: 49 × 3
   proteome       transcriptome     corr
   <chr>          <chr>            <dbl>
 1 prot_microglia rna_oligo_div1   0.263
 2 prot_microglia rna_oligo_div2_5 0.245
 3 prot_microglia rna_oligo_div4   0.240
 4 prot_microglia rna_microglia    0.385
 5 prot_microglia rna_astro        0.229
 6 prot_microglia rna_neuron_div5  0.168
 7 prot_microglia rna_neuron_div10 0.158
 8 prot_astro     rna_oligo_div1   0.276
 9 prot_astro     rna_oligo_div2_5 0.263
10 prot_astro     rna_oligo_div4   0.265
# ℹ 39 more rows
…
